{
  "properties": [
    {
      "name": "currency-exchange-service.ribbon.listOfServers",
      "type": "java.lang.String",
      "description": "Description for currency-exchange-service.ribbon.listOfServers."
  }
] }
